<?xml version="1.0" encoding="UTF-8" standalone="no"?>
<svg
   xmlns:dc="http://purl.org/dc/elements/1.1/"
   xmlns:cc="http://creativecommons.org/ns#"
   xmlns:rdf="http://www.w3.org/1999/02/22-rdf-syntax-ns#"
   xmlns:svg="http://www.w3.org/2000/svg"
   xmlns="http://www.w3.org/2000/svg"
   version="1.1"
   id="svg5631"
   viewBox="0 0 744.09448819 1052.3622047"
   height="297mm"
   width="210mm">
  <defs
     id="defs5633" />
  <metadata
     id="metadata5636">
    <rdf:RDF>
      <cc:Work
         rdf:about="">
        <dc:format>image/svg+xml</dc:format>
        <dc:type
           rdf:resource="http://purl.org/dc/dcmitype/StillImage" />
        <dc:title></dc:title>
      </cc:Work>
    </rdf:RDF>
  </metadata>
  <g
     id="layer1">
    <g
       id="g4254"
       transform="matrix(1.25,0,0,-1.25,156.59861,715.92638)">
      <g
         transform="matrix(-0.0489602,0.93203,1,0.0505502,0,434.70367)"
         id="g4167">
        <path
           id="path4169"
           style="fill:none;stroke:#000000;stroke-width:5.22849321;stroke-linecap:butt;stroke-linejoin:miter;stroke-miterlimit:4;stroke-dasharray:none;stroke-opacity:1"
           d="m -14.932,226.245 c -0.003,29.489 -50.868,53.393 -113.609,53.391 -62.745,-0.001 -113.607,-23.906 -113.609,-53.386 0.003,-29.488 50.863,-53.393 113.609,-53.395 62.745,0.006 113.607,23.906 113.609,53.39 z" />
      </g>
      <g
         transform="matrix(1,0.707302,0.757886,-0.907125,0,434.70367)"
         id="g4171">
        <path
           id="path4173"
           style="fill:none;stroke:#000000;stroke-width:4.2073369;stroke-linecap:butt;stroke-linejoin:miter;stroke-miterlimit:4;stroke-dasharray:none;stroke-opacity:1"
           d="m 177.662,192.561 c 0.004,22.967 -39.614,41.58 -88.478,41.581 -48.871,0 -88.486,-18.615 -88.482,-41.582 -0.003,-22.967 39.612,-41.582 88.479,-41.581 48.868,-0.002 88.483,18.618 88.481,41.582 z" />
      </g>
      <g
         transform="matrix(-1,0.546076,-0.655779,-0.84471,0,434.70367)"
         id="g4175">
        <path
           id="path4177"
           style="fill:none;stroke:#000000;stroke-width:4.60858679;stroke-linecap:butt;stroke-linejoin:miter;stroke-miterlimit:4;stroke-dasharray:none;stroke-opacity:1"
           d="m -124.251,-10.774 c -10e-4,25.943 -44.751,46.97 -99.951,46.971 -55.203,0 -99.951,-21.03 -99.956,-46.971 0.004,-25.94 44.754,-46.973 99.954,-46.969 55.2,-10e-4 99.951,21.03 99.953,46.969 z" />
      </g>
      <g
         transform="matrix(1,0.0387723,0.0387723,-1,0,434.70367)"
         id="g4179">
        <path
           id="path4181"
           style="fill:none;stroke:#000000;stroke-width:4.401021;stroke-linecap:butt;stroke-linejoin:miter;stroke-miterlimit:4;stroke-dasharray:none;stroke-opacity:1"
           d="m 129.13,141.628 -0.005,0.015" />
      </g>
      <g
         transform="matrix(1,0.0387723,0.0387723,-1,0,434.70367)"
         id="g4183">
        <path
           id="path4185"
           style="fill:none;stroke:#000000;stroke-width:4.401021;stroke-linecap:butt;stroke-linejoin:miter;stroke-miterlimit:4;stroke-dasharray:none;stroke-opacity:1"
           d="m 113.025,130.542 -0.005,0.012" />
      </g>
      <g
         transform="matrix(1,0.0387723,0.0387723,-1,0,434.70367)"
         id="g4187">
        <path
           id="path4189"
           style="fill:none;stroke:#000000;stroke-width:4.401021;stroke-linecap:butt;stroke-linejoin:miter;stroke-miterlimit:4;stroke-dasharray:none;stroke-opacity:1"
           d="m 113.032,130.035 0,0.012" />
      </g>
      <g
         transform="matrix(1,0.0387723,0.0386054,-0.995698,0,434.70367)"
         id="g4191">
        <path
           id="path4193"
           style="fill:none;stroke:#000000;stroke-width:5.06148005;stroke-linecap:butt;stroke-linejoin:miter;stroke-miterlimit:4;stroke-dasharray:none;stroke-opacity:1"
           d="m 246.96,122.752 c 0.003,11.267 -9.034,20.405 -20.17,20.403 -11.145,0.002 -20.175,-9.134 -20.173,-20.405 -0.003,-11.267 9.029,-20.402 20.17,-20.403 11.145,-0.002 20.179,9.134 20.173,20.405 z" />
      </g>
      <g
         transform="matrix(1,0.159633,0.166324,-0.72959,0,434.70367)"
         id="g4195">
        <path
           id="path4197"
           style="fill:none;stroke:#000000;stroke-width:5.81254101;stroke-linecap:butt;stroke-linejoin:miter;stroke-miterlimit:4;stroke-dasharray:none;stroke-opacity:1"
           d="M 20.006,585.89 C 19.144,472.865 67.475,362.984 149.467,285.526" />
      </g>
      <path
         id="path4199"
         style="fill:none;stroke:#000000;stroke-width:5.05437422;stroke-linecap:butt;stroke-linejoin:miter;stroke-miterlimit:4;stroke-dasharray:none;stroke-opacity:1"
         d="m 125.461,45.04 c 3.949,97.296 105.055,89.429 105.055,89.429" />
      <path
         id="path4201"
         style="fill:none;stroke:#000000;stroke-width:5.05437422;stroke-linecap:butt;stroke-linejoin:miter;stroke-miterlimit:4;stroke-dasharray:none;stroke-opacity:1"
         d="M 228.184,136.407 C 224.238,39.114 123.129,46.981 123.129,46.981" />
      <g
         transform="matrix(0.0359866,1,1,-0.0359866,0,434.70367)"
         id="g4203">
        <path
           id="path4205"
           style="fill:none;stroke:#000000;stroke-width:5.05110407;stroke-linecap:butt;stroke-linejoin:miter;stroke-miterlimit:4;stroke-dasharray:none;stroke-opacity:1"
           d="m -384.121,113.331 c 9.098,-114.413 127.82,-100.533 127.82,-100.533" />
      </g>
      <g
         transform="matrix(0.0359866,1,1,-0.0359866,0,434.70367)"
         id="g4207">
        <path
           id="path4209"
           style="fill:none;stroke:#000000;stroke-width:5.05110407;stroke-linecap:butt;stroke-linejoin:miter;stroke-miterlimit:4;stroke-dasharray:none;stroke-opacity:1"
           d="m -257.99,10.472 c -9.094,114.417 -127.816,100.533 -127.816,100.533" />
      </g>
      <path
         id="path4211"
         style="fill:none;stroke:#000000;stroke-width:5.05437422;stroke-linecap:butt;stroke-linejoin:miter;stroke-miterlimit:4;stroke-dasharray:none;stroke-opacity:1"
         d="m 126.098,45.708 c 32.898,55.16 100.601,86.988 100.601,86.988" />
      <path
         id="path4213"
         style="fill:none;stroke:#000000;stroke-width:5.05437422;stroke-linecap:butt;stroke-linejoin:miter;stroke-miterlimit:4;stroke-dasharray:none;stroke-opacity:1"
         d="M 95.992,46.317 C 73.91,120.856 3.066,175.118 3.066,175.118" />
      <path
         id="path4223"
         style="fill:#000000;fill-opacity:1;fill-rule:nonzero;stroke:#000000;stroke-width:0.27246499;stroke-linecap:butt;stroke-linejoin:miter;stroke-miterlimit:4;stroke-dasharray:none;stroke-opacity:1"
         d="m 119.742,11.126 0.317,-1.11 -5.067,-0.019 4.75,1.129 z" />
    </g>
    <text
       id="text6235"
       y="832.36218"
       x="369.13269"
       style="font-style:normal;font-weight:normal;font-size:40px;line-height:125%;font-family:sans-serif;letter-spacing:0px;word-spacing:0px;fill:#000000;fill-opacity:1;stroke:none;stroke-width:1px;stroke-linecap:butt;stroke-linejoin:miter;stroke-opacity:1"
       xml:space="preserve"><tspan
         style="font-size:50px;text-align:center;text-anchor:middle"
         y="832.36218"
         x="369.13269"
         id="tspan6237">Летняя Физическая</tspan><tspan
         style="font-size:50px;text-align:center;text-anchor:middle"
         id="tspan6239"
         y="894.86218"
         x="369.13269">Школа 2016</tspan></text>
  </g>
</svg>
