<?xml version="1.0" encoding="UTF-8" standalone="no"?>
<!-- Created with Inkscape (http://www.inkscape.org/) -->

<svg
   xmlns:dc="http://purl.org/dc/elements/1.1/"
   xmlns:cc="http://creativecommons.org/ns#"
   xmlns:rdf="http://www.w3.org/1999/02/22-rdf-syntax-ns#"
   xmlns:svg="http://www.w3.org/2000/svg"
   xmlns="http://www.w3.org/2000/svg"
   xmlns:xlink="http://www.w3.org/1999/xlink"
   xmlns:sodipodi="http://sodipodi.sourceforge.net/DTD/sodipodi-0.dtd"
   xmlns:inkscape="http://www.inkscape.org/namespaces/inkscape"
   width="131.13217"
   height="131.05995"
   id="svg3100"
   version="1.1"
   inkscape:version="0.91 r13725"
   sodipodi:docname="lager2016.svg"
   inkscape:export-filename="/home/igor/dc/fizega/camp13/signs/lager2013.png"
   inkscape:export-xdpi="600"
   inkscape:export-ydpi="600">
  <defs
     id="defs3102" />
  <sodipodi:namedview
     id="base"
     pagecolor="#ffffff"
     bordercolor="#666666"
     borderopacity="1.0"
     inkscape:pageopacity="0.0"
     inkscape:pageshadow="2"
     inkscape:zoom="3.0365182"
     inkscape:cx="67.861025"
     inkscape:cy="79.28944"
     inkscape:document-units="px"
     inkscape:current-layer="layer1"
     showgrid="false"
     fit-margin-top="0"
     fit-margin-left="0"
     fit-margin-right="0"
     fit-margin-bottom="0"
     showguides="true"
     inkscape:guide-bbox="true"
     inkscape:window-width="1918"
     inkscape:window-height="1062"
     inkscape:window-x="0"
     inkscape:window-y="16"
     inkscape:window-maximized="0" />
  <metadata
     id="metadata3105">
    <rdf:RDF>
      <cc:Work
         rdf:about="">
        <dc:format>image/svg+xml</dc:format>
        <dc:type
           rdf:resource="http://purl.org/dc/dcmitype/StillImage" />
        <dc:title></dc:title>
      </cc:Work>
    </rdf:RDF>
  </metadata>
  <g
     inkscape:label="Layer 1"
     inkscape:groupmode="layer"
     id="layer1"
     transform="translate(-246.96301,-510.69203)">
    <path
       sodipodi:type="arc"
       style="fill:none;stroke:#000000;stroke-width:1.72134662;stroke-linecap:round;stroke-miterlimit:4;stroke-opacity:1;stroke-dasharray:none;stroke-dashoffset:0"
       id="path3108"
       sodipodi:cx="355.4028"
       sodipodi:cy="525.1012"
       sodipodi:rx="107.92696"
       sodipodi:ry="116.17616"
       d="M 463.32977,525.1012 A 107.92696,116.17616 0 0 1 355.4028,641.27736 107.92696,116.17616 0 0 1 247.47584,525.1012 107.92696,116.17616 0 0 1 355.4028,408.92503 107.92696,116.17616 0 0 1 463.32977,525.1012 Z"
       transform="matrix(0.60273336,0,0,0.5599357,98.313896,282.20327)" />
    <g
       transform="matrix(0,0.0226915,0.0226915,0,244.31808,736.59826)"
       id="g3056"
       style="fill:#000000;stroke:none">
      <path
         d="m 6405,4335 c -138,-23 -287,-44 -355,-51 -36,-3 -103,-14 -150,-24 -47,-10 -110,-21 -140,-25 -30,-4 -82,-13 -115,-20 -33,-8 -114,-19 -180,-25 -132,-12 -239,-38 -451,-110 -237,-81 -286,-112 -309,-198 -9,-31 -25,-83 -36,-115 -12,-32 -19,-61 -16,-63 2,-2 18,9 35,26 23,21 38,51 53,103 11,39 23,80 26,90 17,56 496,219 683,232 80,6 232,29 400,62 83,16 156,27 275,43 340,44 420,58 420,75 0,15 -51,15 -140,0 z"
         id="path3058"
         inkscape:connector-curvature="0" />
      <path
         d="m 6485,3793 c -16,-2 -120,-15 -230,-28 -238,-30 -375,-54 -375,-66 0,-14 46,-10 360,29 229,29 295,40 295,51 0,17 -9,19 -50,14 z"
         id="path3060"
         inkscape:connector-curvature="0" />
      <path
         d="m 4870,3680 c -69,-10 -134,-20 -145,-23 -11,-3 -37,-9 -58,-12 -32,-5 -41,-12 -53,-42 -9,-19 -27,-53 -41,-74 -14,-22 -23,-42 -20,-45 12,-12 42,16 72,67 31,53 32,53 105,70 87,20 228,39 287,39 36,0 46,-6 89,-52 27,-29 62,-68 77,-86 18,-22 33,-32 43,-28 13,5 12,11 -7,38 -13,18 -53,63 -90,101 -77,77 -63,75 -259,47 z"
         id="path3062"
         inkscape:connector-curvature="0" />
      <path
         d="m 5349,3642 c -30,-24 -66,-88 -55,-99 4,-4 23,11 42,35 22,25 44,42 57,42 82,0 343,-119 457,-209 67,-52 336,-229 368,-242 13,-5 65,-29 115,-53 51,-24 129,-60 175,-81 45,-21 82,-42 82,-46 0,-30 -286,-79 -395,-67 -22,3 -83,26 -135,51 -98,47 -266,119 -310,132 -14,4 -55,23 -91,41 -36,19 -69,34 -73,34 -4,0 -42,17 -84,38 -42,22 -124,51 -182,66 -58,15 -125,33 -150,40 -107,32 -203,46 -327,49 -115,2 -157,-3 -142,-17 2,-2 72,-9 155,-15 130,-8 180,-17 349,-61 175,-46 325,-101 325,-121 0,-9 -40,-16 -176,-34 -131,-17 -268,-57 -219,-63 16,-2 54,1 85,7 67,13 323,50 365,53 18,1 102,-28 210,-71 216,-88 275,-116 297,-145 15,-19 26,-21 105,-20 49,1 117,4 151,8 34,4 62,3 62,-1 0,-5 -51,-39 -112,-78 -62,-38 -144,-90 -183,-115 -38,-25 -95,-62 -125,-81 -30,-19 -86,-55 -125,-81 -97,-62 -159,-96 -234,-124 -73,-28 -108,-30 -156,-10 -29,13 -79,20 -110,17 -5,-1 19,-15 55,-32 56,-27 74,-30 130,-27 76,4 202,60 337,149 98,64 310,200 483,310 68,43 138,81 155,85 16,3 39,14 50,24 40,37 68,40 121,15 66,-31 87,-34 92,-12 2,9 -2,17 -8,17 -26,0 -78,33 -83,52 -5,16 -12,19 -33,15 -19,-3 -55,8 -118,38 -50,24 -147,69 -216,101 -119,54 -351,198 -470,290 -79,61 -231,141 -331,174 -128,42 -150,45 -180,22 z"
         id="path3064"
         inkscape:connector-curvature="0" />
      <path
         d="m 3145,3568 c -4,-9 1,-48 10,-87 10,-39 15,-76 12,-84 -4,-10 -40,-15 -149,-20 -158,-7 -246,-26 -293,-61 -17,-13 -46,-55 -65,-92 l -35,-68 1,-181 c 0,-218 13,-266 94,-338 71,-64 149,-87 293,-87 104,0 165,11 127,24 -8,2 -69,7 -135,9 -88,4 -135,11 -175,26 -59,22 -116,73 -143,127 -23,45 -35,153 -33,284 2,94 6,124 24,164 55,122 93,141 308,158 203,16 190,24 199,-126 4,-68 5,-234 2,-368 -5,-221 -10,-289 -33,-457 -6,-44 -4,-53 7,-49 37,12 62,242 63,578 0,140 -2,300 -6,355 -12,180 -53,345 -73,293 z"
         id="path3066"
         inkscape:connector-curvature="0" />
      <path
         d="m 3792,3553 c -57,-28 -100,-89 -128,-181 -24,-77 -28,-83 -47,-77 -12,4 -60,10 -107,12 -75,4 -89,2 -110,-15 -19,-16 -22,-23 -14,-32 9,-9 18,-8 38,5 21,14 41,17 90,13 87,-7 106,-19 106,-68 0,-36 -6,-44 -90,-119 -49,-45 -92,-81 -95,-81 -16,0 -35,77 -35,140 0,53 -3,70 -14,70 -29,0 -29,-96 0,-196 15,-51 15,-52 -15,-110 -24,-48 -30,-73 -32,-134 l -2,-74 43,-38 c 43,-39 92,-58 146,-58 30,0 32,-2 38,-51 4,-28 14,-68 22,-90 18,-43 87,-109 114,-109 10,0 20,-5 22,-12 4,-10 13,-10 46,0 44,13 112,81 140,140 14,28 20,32 42,27 185,-48 267,58 190,246 -17,41 -37,84 -45,96 -8,12 -15,26 -15,30 0,4 29,57 65,118 36,60 65,119 65,130 0,12 -13,27 -30,37 -21,12 -30,25 -30,42 0,29 -33,55 -82,65 -30,6 -33,11 -43,62 -16,76 -52,143 -102,190 -47,43 -77,49 -131,22 z m 88,-30 c 57,-40 106,-128 112,-204 l 3,-43 -50,-8 c -27,-4 -80,-17 -118,-29 -72,-23 -81,-22 -134,19 l -23,17 25,80 c 27,88 70,149 119,171 40,17 37,17 66,-3 z m 124,-401 c 0,-61 -4,-115 -8,-119 -4,-4 -49,36 -100,90 -57,60 -89,100 -82,104 24,15 133,42 161,40 l 30,-2 -1,-113 z m 117,66 c 54,-59 55,-64 8,-141 -16,-26 -29,-50 -29,-53 0,-12 -42,-64 -51,-64 -5,0 -9,66 -9,155 0,182 4,187 81,103 z m -430,31 c 23,-12 16,-29 -12,-29 -12,0 -19,7 -19,20 0,23 4,24 31,9 z m 189,-160 c 98,-98 110,-114 110,-145 0,-46 -19,-80 -72,-130 -49,-47 -97,-76 -150,-93 -44,-14 -64,-6 -120,47 -33,31 -38,42 -38,82 1,79 29,303 40,314 14,14 69,34 97,35 16,1 56,-33 133,-110 z m -294,-96 c -6,-73 -15,-135 -18,-139 -9,-8 -48,36 -89,99 -18,28 -28,52 -23,56 35,33 138,120 140,118 1,-1 -3,-62 -10,-134 z m -124,-76 c 15,-24 44,-59 64,-80 30,-30 38,-46 42,-87 6,-66 -8,-84 -60,-76 -63,10 -114,35 -127,62 -6,14 -11,45 -11,69 0,51 36,155 53,155 7,0 24,-19 39,-43 z m 640,-127 c 46,-107 49,-151 9,-191 -25,-25 -37,-29 -83,-29 -30,0 -62,6 -72,13 -16,12 -16,17 12,93 16,43 32,97 36,118 22,114 47,113 98,-4 z m -132,1 c 0,-22 -64,-181 -73,-181 -14,0 -117,60 -117,68 0,4 29,22 64,40 35,18 74,44 86,57 24,26 40,32 40,16 z m -326,-67 c 23,-21 26,-28 15,-35 -8,-5 -24,-9 -36,-9 -20,0 -23,5 -23,35 0,42 6,43 44,9 z m 154,-101 c 33,-21 68,-43 78,-49 17,-10 17,-13 -8,-55 -38,-64 -68,-88 -119,-95 -42,-6 -46,-4 -90,37 -43,41 -47,49 -54,107 -4,35 -5,66 -2,69 3,3 21,9 39,13 67,16 96,11 156,-27 z"
         id="path3068"
         inkscape:connector-curvature="0" />
      <path
         d="m 3744,2978 c -48,-23 -57,-91 -18,-137 20,-24 34,-31 61,-31 79,0 126,112 67,159 -28,22 -75,26 -110,9 z m 46,-88 c 6,0 10,-4 10,-10 0,-14 -33,-13 -48,2 -16,16 -15,41 0,56 10,10 14,7 21,-18 4,-16 12,-30 17,-30 z"
         id="path3070"
         inkscape:connector-curvature="0" />
      <path
         d="m 4466,3386 c -61,-61 -78,-86 -58,-86 4,0 34,22 67,50 l 59,50 29,-28 c 28,-26 167,-206 167,-217 0,-2 -28,-39 -63,-82 -81,-101 -97,-124 -97,-142 0,-20 46,25 118,114 31,38 65,77 76,86 18,15 15,20 -67,130 -46,63 -103,131 -125,153 l -40,38 -66,-66 z"
         id="path3072"
         inkscape:connector-curvature="0" />
      <path
         d="m 4360,3173 c 0,-112 -16,-352 -31,-468 -8,-57 -9,-101 -3,-118 9,-26 10,-27 32,-12 l 22,16 0,329 c 0,208 -4,331 -10,335 -6,4 -10,-26 -10,-82 z"
         id="path3074"
         inkscape:connector-curvature="0" />
      <path
         d="m 4820,3122 c 0,-14 80,-83 145,-127 61,-40 65,-41 65,-17 -1,10 -31,38 -78,68 -117,78 -132,87 -132,76 z"
         id="path3076"
         inkscape:connector-curvature="0" />
      <path
         d="m 4976,2885 c -90,-62 -133,-106 -105,-104 24,1 214,134 217,152 6,28 -19,18 -112,-48 z"
         id="path3078"
         inkscape:connector-curvature="0" />
      <path
         d="m 4520,2890 c 0,-15 182,-160 202,-160 28,0 21,16 -19,47 -21,15 -65,49 -97,76 -58,45 -86,58 -86,37 z"
         id="path3080"
         inkscape:connector-curvature="0" />
      <path
         d="m 5935,2841 c -85,-40 -215,-77 -223,-64 -5,7 -110,13 -287,16 -154,4 -296,9 -315,12 -32,6 -34,5 -16,-9 34,-27 116,-36 346,-36 127,0 230,-3 230,-7 0,-10 -109,-51 -370,-143 -107,-37 -226,-80 -263,-94 -37,-14 -102,-35 -145,-46 -99,-26 -135,-41 -125,-51 12,-12 176,25 273,61 47,18 162,58 255,90 94,32 202,72 240,88 39,16 138,52 220,80 167,57 285,107 285,122 0,18 -44,10 -105,-19 z"
         id="path3082"
         inkscape:connector-curvature="0" />
      <path
         d="m 4725,2682 c -150,-227 -181,-282 -157,-282 16,0 212,293 212,316 0,32 -20,19 -55,-34 z"
         id="path3084"
         inkscape:connector-curvature="0" />
      <path
         d="m 4380,2514 c 0,-24 100,-158 124,-167 32,-13 25,15 -16,64 -95,115 -107,126 -108,103 z"
         id="path3086"
         inkscape:connector-curvature="0" />
      <path
         d="m 5200,2378 c 0,-67 9,-62 -202,-108 -58,-13 -107,-29 -120,-41 l -23,-20 35,5 c 53,6 277,55 305,66 28,11 38,39 33,95 -4,56 -28,58 -28,3 z"
         id="path3088"
         inkscape:connector-curvature="0" />
      <path
         d="m 4630,2388 c 0,-17 52,-258 68,-313 21,-70 96,-261 108,-274 29,-31 24,16 -12,109 -64,168 -80,228 -66,251 10,16 9,26 -8,57 -11,20 -29,62 -40,93 -23,64 -49,105 -50,77 z"
         id="path3090"
         inkscape:connector-curvature="0" />
      <path
         d="m 6479,2246 c -2,-3 -130,-8 -284,-11 -303,-6 -372,-11 -395,-25 -10,-7 18,-10 85,-11 55,0 118,-2 140,-3 52,-4 493,13 523,20 36,7 20,29 -24,32 -22,2 -42,1 -45,-2 z"
         id="path3092"
         inkscape:connector-curvature="0" />
      <path
         d="m 4930,1763 c 0,-18 115,-72 181,-86 75,-16 461,-15 934,2 165,6 362,11 438,11 107,0 138,3 135,13 -7,20 -103,25 -325,15 -116,-5 -411,-10 -655,-11 l -443,-2 -87,28 c -99,31 -178,45 -178,30 z"
         id="path3094"
         inkscape:connector-curvature="0" />
    </g>
    <path
       transform="matrix(0.44321311,0,0,0.41174235,155.00784,360.01978)"
       d="M 463.32977,525.1012 A 107.92696,116.17616 0 0 1 355.4028,641.27736 107.92696,116.17616 0 0 1 247.47584,525.1012 107.92696,116.17616 0 0 1 355.4028,408.92503 107.92696,116.17616 0 0 1 463.32977,525.1012 Z"
       sodipodi:ry="116.17616"
       sodipodi:rx="107.92696"
       sodipodi:cy="525.1012"
       sodipodi:cx="355.4028"
       id="path3953"
       style="fill:none;stroke:#000000;stroke-width:0;stroke-linecap:round;stroke-miterlimit:4;stroke-opacity:1;stroke-dasharray:none;stroke-dashoffset:0"
       sodipodi:type="arc" />
    <text
       xml:space="preserve"
       style="font-size:19.75px;font-style:normal;font-variant:normal;font-weight:300;font-stretch:normal;line-height:125%;letter-spacing:0px;word-spacing:0px;fill:#000000;fill-opacity:1;stroke:none;font-family:Nissan AG;-inkscape-font-specification:Nissan AG Light"
       id="text3955"
       sodipodi:linespacing="125%"
       transform="matrix(-0.98791513,0.25427202,-0.25973599,-0.96713274,771.26701,1053.4585)"><textPath
         xlink:href="#path3953"
         id="textPath3959"
         style="font-size:15px">летняя                  физическая</textPath></text>
    <path
       sodipodi:type="arc"
       style="fill:none;stroke:#000000;stroke-width:0;stroke-linecap:round;stroke-miterlimit:4;stroke-opacity:1;stroke-dasharray:none;stroke-dashoffset:0"
       id="path3977"
       sodipodi:cx="355.4028"
       sodipodi:cy="525.1012"
       sodipodi:rx="107.92696"
       sodipodi:ry="116.17616"
       d="m 427.43777,611.61316 a 107.92696,116.17616 0 0 1 -143.25435,0.77893"
       transform="matrix(-0.48166076,0,0,0.44978513,486.84166,343.79996)"
       sodipodi:start="0.8400282"
       sodipodi:end="2.291462"
       sodipodi:open="true" />
    <text
       xml:space="preserve"
       style="font-style:normal;font-variant:normal;font-weight:300;font-stretch:normal;font-size:19.75px;line-height:125%;font-family:'Nissan AG';-inkscape-font-specification:'Nissan AG Light';letter-spacing:0px;word-spacing:0px;fill:#000000;fill-opacity:1;stroke:none"
       id="text3979"
       sodipodi:linespacing="125%"
       transform="matrix(0.99980918,0.01953425,-0.01953425,0.99980918,9.6946977,-5.5225044)"><textPath
         xlink:href="#path3977"
         id="textPath3983"><tspan
   style="font-size:15px"
   id="tspan3981"
   dx="5 0.70710677 0.70710677 0.70710677 0.88388348">школа'16</tspan></textPath></text>
    <path
       sodipodi:nodetypes="cscccsccccscccccccccccccccc"
       style="fill:#000000;stroke:none"
       inkscape:connector-curvature="0"
       id="path4704"
       d="m 303.3304,521.57985 c -0.0339,0.0848 -0.16959,0.25439 -0.30526,0.39006 -0.44093,0.44093 -1.11928,2.84908 -1.3567,4.74847 -0.11872,1.01753 -0.27135,3.90053 -0.33918,6.39348 0.11888,4.40636 0.036,5.09844 -3.96837,3.54439 -1.57717,-0.64443 -1.69588,-0.69531 -1.96722,-0.69531 -0.15263,0 -0.23743,0.11871 -0.20351,0.27134 0.0509,0.27134 1.65984,1.50723 2.77913,1.79553 5.59403,1.62189 11.76204,1.87473 16.52002,1.7934 4.22032,-0.23032 8.85212,-0.0706 12.54954,-1.86124 1.32278,-0.35613 2.883,-1.47331 2.883,-1.76161 0,-0.39005 -0.6614,-0.23742 -2.5947,0.59356 -4.16259,1.76123 -3.51038,-0.82371 -3.57832,-3.42568 -0.13567,-5.57946 -0.0845,-7.97542 -0.66113,-9.68826 -0.74619,-2.20465 -1.15346,-2.18292 -3.17156,-3.20045 -0.74619,-0.35614 -0.91578,-0.3731 -6.95312,-0.40701 -3.4808,-0.10919 -6.73355,-0.38398 -9.63262,1.50933 z m 15.84378,-0.23317 c 1.53226,0.35878 2.26587,1.29958 2.59471,2.15165 0.30525,0.7801 0.53632,1.78067 0.62111,2.25552 0.2883,1.4415 0.62111,12.10224 0.41761,12.32271 -0.59356,0.5766 -14.71178,0.69955 -18.71406,0.19078 -1.08537,-0.13567 -2.05202,-0.2883 -2.11986,-0.33918 -0.13567,-0.0848 0.5533,-6.69873 0.80768,-10.27705 0.18625,-2.72661 -0.13329,-4.55951 1.97993,-5.84018 0.84795,-0.45789 0.99421,-0.50876 3.36845,-0.61052 3.23914,-0.13567 10.16258,-0.0742 11.04443,0.14627 z" />
    <path
       sodipodi:nodetypes="ccccccccccccccccccccccccccccccccccccccccccccscccccccccccccccccccccccccccccccccccccc"
       inkscape:connector-curvature="0"
       id="path4716"
       d="m 317.03314,542.91406 c -1.72499,0.32605 -3.22837,1.2806 -4.74479,2.09671 -1.23965,0.10023 -1.92507,-1.2717 -3.06374,-1.58291 -1.19688,-0.58309 -2.71609,-0.86438 -3.91444,-0.13321 -1.30867,1.0252 0.0642,3.1271 -1.19935,3.96546 -1.67261,1.10497 -3.47212,2.18004 -4.64355,3.85308 -0.3276,1.41229 -0.088,3.07491 1.15984,3.97395 1.1223,1.06035 2.48767,1.82191 3.89041,2.44543 -0.36813,1.42932 -0.0908,3.09241 1.09985,4.05927 1.42101,0.82165 3.11955,-8.5e-4 4.32589,-0.86402 1.00212,-0.66988 1.87441,-1.55654 2.96882,-2.07331 1.42454,-0.28378 2.34049,1.14653 3.38282,1.86037 1.22101,0.95754 2.84789,1.78605 4.42548,1.33664 1.24861,-0.70806 1.43668,-2.53663 0.90169,-3.75559 -0.69302,-1.82435 -2.0161,-3.33762 -2.73133,-5.14083 -0.0738,-1.34688 1.39034,-2.0533 1.78258,-3.26512 0.12991,-1.0502 0.8709,-1.36604 1.77627,-0.9944 1.44815,0.70364 2.66118,1.37247 3.32302,2.89727 0.35586,1.87795 -3.09992,5.10317 -4.95808,5.86518 -0.51061,0.35792 0.0343,0.0211 0.22628,0.48451 1.26056,0.40596 3.11419,-1.2112 3.9637,-1.96539 0.98315,-0.96025 1.68771,-2.29577 1.50944,-3.70185 0.21701,-1.6676 -1.0088,-2.91164 -2.40384,-3.56243 -1.19997,-0.84894 -3.29677,-1.18572 -2.70365,-3.09973 0.0387,-0.94162 1.25419,-2.68493 -1.94203,-2.79804 2.2694,0.20652 1.78731,2.74931 1.36748,4.16908 -1.67231,-0.72198 -3.5012,-0.89001 -5.25352,-1.33397 -0.67435,-0.23432 -2.02561,-0.19576 -2.26824,-0.58618 1.02798,-0.93798 2.44945,-1.29233 3.74464,-1.71086 0.59162,-0.25393 3.66611,0.045 3.6392,-0.42857 -0.37872,-0.41979 -2.94808,-0.079 -3.66085,-0.0105 z m -8.61986,0.83575 c 0.63649,0.40102 2.02975,0.67243 1.83023,1.35243 -1.71426,0.29736 -2.7485,0.53194 -4.33511,1.26427 -1.13899,-0.67767 -0.68802,-2.85033 0.68006,-2.94624 0.77284,-0.097 1.09682,0.0535 1.82482,0.32954 z m 2.15854,3.08174 c -1.22106,1.31032 -2.26181,2.77234 -3.30697,4.22275 -0.84083,-1.06686 -1.07172,-2.24213 -1.37681,-3.5408 0.74385,-1.11798 1.92579,-1.01781 3.11917,-1.45719 0.61506,-0.0394 2.44027,-0.65406 2.50005,-0.27898 -0.31182,0.35141 -0.62363,0.70281 -0.93544,1.05422 z m 5.1894,-0.66139 c 1.62973,0.28921 3.18357,0.87916 4.78647,1.27688 0.22216,1.37156 -0.49695,2.55209 -1.43106,3.43253 -1.69341,1.59613 -4.52632,-3.65393 -6.49279,-5.1673 1.06961,-0.0966 2.09291,0.30647 3.13738,0.45789 z m -2.51626,1.32491 c 1.53729,1.68767 3.18262,3.13861 4.46418,5.03531 -0.0423,0.45225 -0.58786,1.86158 0.30807,1.0478 1.29309,0.25285 1.08479,1.88437 1.89195,2.73428 0.88444,1.06747 0.0484,1.5113 -1.00947,1.32279 -1.70252,0.1905 -2.94423,0.35605 -4.64991,0.1729 0.65143,-1.06405 2.6258,-2.69822 3.43796,-3.62511 0.61241,-0.21437 1.29981,-2.09946 0.30822,-1.12644 -1.06361,1.07995 -3.34589,3.27823 -4.59943,4.14209 -1.95488,-1.54674 -3.52239,-2.96968 -5.10281,-4.89394 -0.6667,-1.22944 0.7999,-2.10805 1.44765,-3.02822 1.04691,-0.91637 1.24266,-1.95156 2.20889,-2.77961 0.70232,-0.0594 0.81225,0.63287 1.2947,0.99815 z m -8.25259,0.30313 c 0.14329,1.59776 1.58587,2.65834 1.55286,4.17285 -0.60296,1.24503 -1.32087,2.16236 -1.68824,3.51235 -0.3989,2.0452 -1.89242,0.5994 -2.83563,-0.0984 -1.11275,-0.96094 -2.30268,-2.24379 -1.80736,-3.81831 0.57442,-1.27322 1.85186,-1.84222 2.92534,-2.67947 0.4793,-0.1427 1.69665,-2.11224 1.85303,-1.089 z m 3.1713,5.32508 c 1.34971,1.66869 2.63872,3.0085 4.1708,4.50256 -0.72722,0.8172 -1.92746,0.19239 -2.93861,0.33749 -1.98029,0.61933 1.84472,0.24257 1.71023,1.10333 -1.39816,1.08789 -2.14693,1.79031 -3.89888,2.1775 -1.51366,0.0645 -2.16291,-1.54496 -2.04688,-2.83031 0.1138,-1.56901 6.7648,1.03533 7.06137,0.29325 0.007,-0.95948 -7.35398,-1.044 -6.97709,-2.37755 0.71232,-1.32073 1.05631,-2.95139 2.10906,-4.03421 0.41037,0.0695 0.5105,0.59847 0.81,0.82794 z m 12.88658,5.43636 c 0.66621,1.37502 -0.42462,3.25549 -2.08287,2.64299 -1.36685,-0.48528 -2.01662,-1.19466 -3.22551,-1.96764 -1.1412,-0.96499 1.0002,-0.44233 1.55469,-0.59434 1.24804,-0.0266 2.38881,-0.31017 3.60169,-0.60832 0.20053,0.0424 0.099,0.34536 0.152,0.52731 z"
       style="fill:#000000;stroke:none" />
    <path
       style="fill:#000000;stroke:none"
       inkscape:connector-curvature="0"
       id="path4718"
       d="m 312.0642,550.32507 c -0.35614,0.0848 -1.56021,1.23799 -1.67893,1.59413 -0.11871,0.32222 0.45789,1.4415 0.79707,1.57717 0.15263,0.0509 0.83098,0.10175 1.50934,0.10175 1.89938,0 2.37423,-0.5766 1.645,-2.00114 -0.54268,-1.0684 -1.37366,-1.52629 -2.27248,-1.27191 z m 0.93273,1.32279 c 0.15263,0.35613 0.13567,0.47485 -0.11871,0.76315 -0.42397,0.47484 -0.89882,0.44093 -1.03449,-0.0848 -0.0509,-0.23742 -0.18654,-0.42397 -0.27134,-0.42397 -0.10175,0 -0.13567,0.18655 -0.10175,0.42397 0.10175,0.47485 -0.0509,0.54268 -0.37309,0.16959 -0.45789,-0.55964 0.22046,-1.27191 1.23799,-1.27191 0.33918,0 0.52572,0.11871 0.66139,0.42397 z m 1.13625,1.20408 c -0.2883,0.35613 -0.52573,0.2883 -0.2883,-0.0848 0.11871,-0.18655 0.27134,-0.2883 0.33917,-0.23742 0.0848,0.0339 0.0678,0.18654 -0.0509,0.32222 z" />
    <path
       sodipodi:nodetypes="cccccccccccccccccccccccccccccccczcccccccccccccccccccccccccccccccccc"
       inkscape:connector-curvature="0"
       id="path4724"
       d="m 302.19416,566.0459 c -1.52263,2.57441 -3.29621,5.05716 -5.5625,7.03792 -10.71546,4.31707 -13.85035,0.30697 -14.50814,12.75241 -0.71223,7.55887 -0.92698,15.1568 -1.48615,22.72546 0.73586,1.43822 1.06976,-2.98124 1.26106,-3.99706 0.42791,-6.63383 0.5142,-13.57635 1.12268,-20.19532 1.27794,-9.01072 6.10044,-7.31069 14.01543,-10.84805 0.38866,1.10535 0.2109,3.08143 0.61862,4.44891 -0.0817,2.00804 1.10187,3.69015 1.96548,4.64663 -3.12869,1.06306 -1.43244,5.7428 -0.15427,7.84818 1.97534,4.39676 4.7335,8.32964 7.80059,11.98519 1.52049,2.15681 3.71925,3.70982 4.9965,6.04369 0.16563,1.05298 0.16536,5.00725 0.84371,4.3245 0.39748,-3.00144 -0.68474,-6.10779 2.03294,-8.07029 1.09251,-0.80406 6.82619,-8.52294 4.54788,-6.14484 -1.16774,1.08348 -6.86708,9.87534 -6.45097,5.91828 -0.35493,-2.98576 2.42592,-5.33133 2.86283,-8.2976 2.01052,-6.11753 3.97368,-12.11588 5.34775,-18.42179 0.55597,-3.93588 0.74368,-7.9216 0.55447,-11.89189 1.69196,2.06887 3.03219,4.39158 4.86719,6.34261 0.81291,2.63611 -0.28096,5.36484 -0.84796,7.99608 -0.64772,1.57059 -3.45758,2.41672 -0.82356,3.87113 1.96708,2.27947 -0.0688,4.67278 -1.29976,6.79914 -1.19447,2.32501 -4.88323,7.21759 -7.86966,11.01131 -7.18174,8.2902 -0.0791,3.13185 2.19405,-0.91761 2.84589,-3.59 6.08892,-6.73127 7.782,-11.02534 1.42463,-1.91198 1.72881,-6.27513 -1.13837,-7.216 1.56738,-1.20197 3.09259,-3.6726 3.12026,-6.16992 -0.18579,-1.91445 -0.17755,-3.38936 1.83569,-1.85716 9.82699,3.29772 10.14466,0.42649 12.06177,10.76703 0.4895,5.59625 0.62058,11.95257 1.0335,17.55544 0.31254,1.81834 0.61433,5.60162 1.48959,5.71098 -1.4586,-7.11957 0.0389,-30.46679 -4.25507,-32.68339 -4.29395,-2.2166 -7.74799,-1.82128 -11.39156,-3.45589 -2.63033,-2.14146 -4.66198,-4.7092 -6.48438,-7.46585 -1.198,0.57151 -0.63606,2.45278 -0.90333,3.71371 -1.80028,1.52879 -3.92322,2.47673 -5.94406,3.62708 1.68941,0.3016 3.67302,-1.03805 5.43482,-2.01611 0.5814,0.009 0.12932,1.58757 0.24744,2.38767 -0.24329,4.0555 -1.08536,7.90659 -2.54171,11.69623 -0.67593,2.04221 -0.71203,4.83705 -1.83604,6.08954 -1.07171,-5.27043 -1.65418,-10.08068 -2.92196,-15.31461 -0.86242,-0.56993 -0.0763,3.48556 -0.0271,4.42928 0.5852,4.33362 1.81969,8.42277 2.3568,12.7585 -0.36573,2.65164 -1.56417,4.43602 -2.33435,6.98331 -1.43503,3.99839 -2.35768,-1.32525 -3.1194,-2.9818 -1.32436,-2.48255 -1.64801,-4.95427 -0.85829,-7.65012 0.72093,-4.40054 0.84811,-8.91744 1.76071,-13.28055 -0.47053,-1.38802 -1.42049,3.2897 -1.7268,4.2206 -0.67941,3.80764 -0.45267,7.31293 -1.43814,11.02114 -1.55428,-3.76063 -2.13102,-7.37567 -3.40797,-11.23386 -0.80892,-3.26598 -1.1843,-5.81935 -1.34156,-9.16758 1.81889,1.22584 3.55093,1.64835 5.64199,2.30638 0.12319,-1.07504 -3.98496,-1.81643 -5.20636,-3.10346 -1.17839,-0.49127 -0.42658,-1.93418 -0.64825,-2.90175 0.2107,-1.23154 -0.57674,-2.51867 -1.2681,-0.71049 z m 1.08536,8.95427 c 0.29741,5.46584 2.659,10.50763 4.26807,15.66873 1.59023,3.84821 2.36283,8.04406 4.55901,11.62014 -0.10903,1.18699 1.2028,6.6909 -0.83947,3.2879 -1.98844,-2.537 -4.24615,-4.78844 -6.1208,-7.42139 -2.5417,-3.36953 -4.2367,-7.00628 -5.82897,-10.91458 -0.65814,-1.87726 0.42685,-3.75781 1.95468,-4.76832 -2.17314,-1.10199 -2.81865,-3.43738 -2.87379,-5.7256 -0.98057,-3.15316 0.79753,-5.30473 2.75295,-7.51076 0.7781,-0.51488 1.99741,-4.66762 1.75437,-2.1398 0.0695,2.63679 0.16987,5.27347 0.37395,7.90368 z"
       style="fill:#000000;stroke:none" />
    <path
       sodipodi:nodetypes="sccccccccscscccscccccccsccccs"
       style="fill:#000000;stroke:none"
       inkscape:connector-curvature="0"
       id="path4726"
       d="m 303.80525,565.29972 c 0,0.47484 3.47656,1.96722 5.25724,2.23856 2.13681,0.32222 2.2216,0.33918 2.13681,0.54268 -0.59356,1.32279 -1.10233,2.91692 -1.20408,3.71399 -0.10175,0.93273 -0.10175,0.96665 0.27134,0.93273 0.2883,-0.0339 0.40701,0.0848 0.59356,0.62748 0.55964,1.54325 1.78068,2.06898 2.62862,1.13624 0.23742,-0.25438 0.5766,-0.83098 0.74619,-1.30583 0.16959,-0.45789 0.33918,-0.74619 0.39005,-0.62747 0.0339,0.10175 0.16959,0.2035 0.32222,0.2035 0.20351,0 0.23742,-0.16959 0.13567,-0.89882 -0.11871,-0.98361 -1.06841,-3.68006 -1.28887,-3.68006 -0.25438,0 -0.16959,0.39005 0.27134,1.49237 0.23742,0.5766 0.42397,1.22104 0.42397,1.42455 -0.017,0.22046 -0.33918,1.03448 -0.72923,1.83155 -0.66139,1.32279 -0.74619,1.4415 -1.22103,1.4415 -0.47485,0 -0.55965,-0.11871 -1.28888,-1.56021 l -0.79706,-1.56021 0.42397,-1.1532 c 0.23742,-0.62748 0.47485,-1.40759 0.50877,-1.71285 l 0.0848,-0.54268 1.56021,0.017 c 0.84794,0 1.76372,-0.0678 2.0181,-0.16959 0.27134,-0.10175 0.74619,-0.18655 1.06841,-0.18655 0.64443,0 4.39234,-1.40758 4.86718,-1.81459 0.5766,-0.52572 0.27134,-0.50877 -1.01753,0.0509 -2.56074,1.18262 -5.56956,1.27446 -7.39087,1.27614 -3.0527,0.20016 -4.80261,-0.33798 -7.37391,-1.72133 -0.72923,-0.32221 -1.39698,-0.0636 -1.39698,0.004 z" />
    <path
       sodipodi:nodetypes="ccsccc"
       style="fill:#000000;stroke:none"
       inkscape:connector-curvature="0"
       id="path4730"
       d="m 289.15282,597.62325 c -0.45789,1.18711 -0.72923,12.60041 -0.30526,12.73608 0.15263,0.0678 0.64869,-0.82675 0.64869,-3.43841 0,-1.84851 0.0106,-4.61704 0.0954,-6.32988 0.0848,-1.7298 -0.23531,-3.1713 -0.26923,-3.18826 -0.0339,-0.0339 -0.10176,0.0678 -0.16959,0.22047 z" />
    <path
       sodipodi:nodetypes="ccsccccc"
       style="fill:#000000;stroke:none"
       inkscape:connector-curvature="0"
       id="path4732"
       d="m 335.75568,598.53902 c 0.0678,0.69532 -0.07,3.73731 -0.002,6.63727 0.0509,2.91692 0.37522,5.23391 0.46002,5.23391 0.0678,0 0.16959,-0.13567 0.22046,-0.2883 0.15263,-0.39005 0.47274,-5.78296 0.30315,-7.59755 -0.0848,-0.84794 -0.2035,-2.46116 -0.25438,-3.34302 -0.0509,-0.8649 -0.54057,-1.49025 -0.64233,-1.64288 -0.11871,-0.18655 -0.15263,0.0848 -0.0848,1.00057 z" />
  </g>
</svg>
